{
  "icon": "Furnace",
  "lastVersionId": "1.12.2-forge1.12.2-14.23.5.2847",
  "name": "forge",
  "type": "custom",
	"javaArgs": "-Xmx6G -XX:+UseConcMarkSweepGC -XX:+CMSIncrementalMode -XX:-UseAdaptiveSizePolicy -Xmn128M"
}
